Project2_Report
…
Ordering the deseq2 results based on the lowest adjusted p value.

#order the results with the lowest padj
resOrdered = res[order(res$padj),] #order the results based on the lowest padj value
deseq2_res = as_tibble(resOrdered, rownames='gene') #create a tibble of the ordered padj value
deseq2_res #show the results of deseq as ranked by the adjusted p value

## # A tibble: 19,681 × 7
##    gene               baseMean log2FoldChange  lfcSE  stat    pvalue      padj
##    <chr>                 <dbl>          <dbl>  <dbl> <dbl>     <dbl>     <dbl>
##  1 ENSG00000129824.16   10687.           8.77 0.141   62.2 0         0        
##  2 ENSG00000289575.1      732.          -3.70 0.124  -29.8 2.32e-195 2.15e-191
##  3 ENSG00000108439.11     605.           4.16 0.140   29.7 1.65e-193 1.02e-189
##  4 ENSG00000253846.3      497.          -4.48 0.201  -22.3 9.86e-110 4.57e-106
##  5 ENSG00000250616.4      525.           2.42 0.114   21.1 3.61e- 99 1.34e- 95
##  6 ENSG00000251129.3     1302.           1.71 0.0979  17.5 1.00e- 68 3.10e- 65
##  7 ENSG00000173262.12     634.          -4.69 0.282  -16.6 8.00e- 62 2.12e- 58
##  8 ENSG00000286339.1      908.           1.72 0.115   15.0 1.01e- 50 2.35e- 47
##  9 ENSG00000289456.1      384.           2.13 0.145   14.7 4.13e- 49 8.50e- 46
## 10 ENSG00000282914.1      121.          -3.76 0.265  -14.2 1.02e- 45 1.89e- 42
## # ℹ 19,671 more rows
…
ids = read_tsv("/projectnb/bf528/students/nobma/projects/project2/project-2-taraobma/full_results/gtf.txt") #importing the gtf.txt and print out the file as tibble

## Rows: 63241 Columns: 2
## ── Column specification ────────────────────────────────────────────────────────
## Delimiter: "\t"
## chr (2): gene_id, gene_name
## 
## ℹ Use `spec()` to retrieve the full column specification for this data.
## ℹ Specify the column types or set `show_col_types = FALSE` to quiet this message.

as_tibble(ids) #show the ids tibble

## # A tibble: 63,241 × 2
##    gene_id           gene_name      
##    <chr>             <chr>          
##  1 ENSG00000290825.1 DDX11L2        
##  2 ENSG00000223972.6 DDX11L1        
##  3 ENSG00000227232.6 WASH7P         
##  4 ENSG00000278267.1 MIR6859-1      
##  5 ENSG00000243485.5 MIR1302-2HG    
##  6 ENSG00000284332.1 MIR1302-2      
##  7 ENSG00000237613.2 FAM138A        
##  8 ENSG00000268020.3 OR4G4P         
##  9 ENSG00000290826.1 ENSG00000290826
## 10 ENSG00000240361.3 OR4G11P        
## # ℹ 63,231 more rows

Left joining the gtf tibble to the deseq2 results with the common
gene ensemble ids and relocate the gene symbol to the very left column
of the table.

#left join the tibble imported above based on the gene from deseq2 res and gene_id from ids
deseq2_res = deseq2_res %>% 
  left_join(ids, by= c("gene" = "gene_id")) %>% 
  relocate(gene_name) #relocate the gene name to the very left column

deseq2_res #print out the result 

## # A tibble: 19,681 × 8
##    gene_name      gene  baseMean log2FoldChange  lfcSE  stat    pvalue      padj
##    <chr>          <chr>    <dbl>          <dbl>  <dbl> <dbl>     <dbl>     <dbl>
##  1 RPS4Y1         ENSG…   10687.           8.77 0.141   62.2 0         0        
##  2 ENSG000002895… ENSG…     732.          -3.70 0.124  -29.8 2.32e-195 2.15e-191
##  3 PNPO           ENSG…     605.           4.16 0.140   29.7 1.65e-193 1.02e-189
##  4 PCDHGA10       ENSG…     497.          -4.48 0.201  -22.3 9.86e-110 4.57e-106
##  5 YPEL3-DT       ENSG…     525.           2.42 0.114   21.1 3.61e- 99 1.34e- 95
##  6 LINC02506      ENSG…    1302.           1.71 0.0979  17.5 1.00e- 68 3.10e- 65
##  7 SLC2A14        ENSG…     634.          -4.69 0.282  -16.6 8.00e- 62 2.12e- 58
##  8 ENSG000002863… ENSG…     908.           1.72 0.115   15.0 1.01e- 50 2.35e- 47
##  9 ENSG000002894… ENSG…     384.           2.13 0.145   14.7 4.13e- 49 8.50e- 46
## 10 ENSG000002829… ENSG…     121.          -3.76 0.265  -14.2 1.02e- 45 1.89e- 42
## # ℹ 19,671 more rows
…
An adjusted p value of 0.05 was chosen to obtain the statistically
significant genes. At this threshold, there are 676 significant
genes.

pos_res = deseq2_res %>% filter(padj < 0.05 & log2FoldChange > 0 ) %>% select(gene_name) #padj value of 0.05 
pos_res

## # A tibble: 676 × 1
##    gene_name      
##    <chr>          
##  1 RPS4Y1         
##  2 PNPO           
##  3 YPEL3-DT       
##  4 LINC02506      
##  5 ENSG00000286339
##  6 ENSG00000289456
##  7 RPS3AP6        
##  8 PCDHGB7        
##  9 OCIAD2         
## 10 GPRC5D-AS1     
## # ℹ 666 more rows
…
